Class,Name
ט 1,אזולאי שלו
ט 1,אלול דניאלה
ט 1,ברהן אנייאט
ט 1,ברוך מתן
ט 1,דאניו אסתר
ט 1,דמרי ספיר
ט 1,וינוקור נדב לוי
ט 1,חדד מיתר
ט 1,טאפרה דוד
ט 1,לוי אופק
ט 1,לוי ליהי
ט 1,מרום שחר
ט 1,נונה יובל
ט 1,קמושר נעם
ט 1,קניאס תהילה
ט 1,שטירמר תומר
ט 1,שילה עמרי
ט 2,אליסבטצקי מיטל ליה
ט 2,אסקובדו זכרי
ט 2,אקאווי מיטשל רביב
ט 2,אשקן מלי
ט 2,בירז' אליזבט
ט 2,בן סימון עדן
ט 2,בן עמי חנה אלינור
ט 2,ג'וסט איזבלה ליה
ט 2,גזית נעמי
ט 2,דוידוב דניאל
ט 2,הולצר סמואל
ט 2,הורוביץ יונתן
ט 2,ורשצ'גין איליה
ט 2,טבצ'ניק מיזירי ג'לרמי
ט 2,טול ויקטוריה
ט 2,לייבוביץ טייסי לוי
ט 2,ליפקה גרגור
ט 2,לנקרי שרון
ט 2,מולקנדוב אריאל
ט 2,מיסנו נועה
ט 2,סטיינברגר תמרה
ט 2,סיוקלר מרינה
ט 2,סיוקלר פדרו
ט 2,סלומון אלונה
ט 2,סמג'ה יעקב יוסף
ט 2,סרפין עדי גייל
ט 2,קלו שרה
ט 2,רוברט תמר נועה
ט 2,רוזונצסקי רוזה
ט 2,רוסושנסקי מתיו
ט 2,שריקי מלאכי
ט 2,שרמן סברינה
י 1,אגוזי דור
י 1,אגוזי יניב
י 1,איתמרי אור
י 1,אלבז הראל
י 1,אפרים אביב
י 1,בר ללי
י 1,ברוך תומר
י 1,גוזי מור-ריקי
י 1,גונן מאיה
י 1,גרבי אדר
י 1,דרור אורי
י 1,הורביץ רונה
י 1,ולך איל
י 1,זיכל-רינון עלמה
י 1,זכרוני רוי
י 1,חגג עדי
י 1,יחזקאל יאלי
י 1,לוי רתם
י 1,לויסון רז
י 1,לילה לירון
י 1,מוזר עמר
י 1,מלאך שגיא
י 1,נפתלי שנהב
י 1,סימון יועד
י 1,עובדיה רועי
י 1,עלה פיט איתי
י 1,עמבר נועה
י 1,פז אורי
י 1,פפרני יואב
י 1,פרקש איתי
י 1,קורן גאיה
י 1,קפלן נטע
י 1,רבינוביץ הילה
י 1,רבינסקי מאי
י 1,רוט שחר
י 1,שבל תומר הרי
י 1,שלט נועה
י 10,אונימה מאיה
י 10,בראון בנימין
י 10,ג'נצן מישל
י 10,דל מונטה לורנצ'ו
י 10,ויצמן יונתן
י 10,ז'דן אליה
י 10,זט'ולובסקי אדוארד
י 10,חדד קארן
י 10,טפר טלי
י 10,טרצ'ינה אנג'לו דוד
י 10,ליסיה ג'יאה
י 10,לנג דניאל
י 10,מאייר דניאל לירון
י 10,מדלה דובי מרי
י 10,מנייבה דרינה
י 10,מתן שרה אמה
י 10,ניקולס זכאי ברייאן
י 10,סופיר אהרון
י 10,סורדה בנג'מין ארי
י 10,סטריקובסקי קאן אביגדור
י 10,פיפרנו שרה
י 10,פרין משה
י 10,קארק סיון
י 10,קוניג לאה
י 10,קופרמן ידין
י 10,קלישר מיקיילה
י 10,קראפי אנה
י 10,קריקלברג רבקה
י 10,רוג'ו אפריל צ'ריס
י 10,רוסוחנסקי ארתור
י 10,רוסק רבקה שולמית
י 10,שוורצבת עמית בריאנה
י 11,אדמוני מריאנה
י 11,בוסטי לוקה טיזיינו
י 11,גד גיטה נתן
י 11,גזית מתן ישראל
י 11,גיא נווה שלום
י 11,גרינברג שמחה
י 11,גרסון שרה
י 11,די פורטו רבקה
י 11,חביב מוריס עמנואל
י 11,טרצ'ינה טזארה אלברטו
י 11,ליבולי ג'יאה
י 11,מוסקטי אלסיו
י 11,מור קורל
י 11,מורד אורי
י 11,מיסנו יועד
י 11,מריאנו אנג'לו
י 11,מרשטיין גילרמי
י 11,נש רבי
י 11,סופיר דבורה
י 11,סטיבנס ביילי
י 11,ספיציקינו פיורה
י 11,עמר רוני
י 11,פרנקס גולדי
י 11,צוקרמן גלעד
י 11,קאלו סמואל
י 11,קומר רחל שרה
י 11,קרומינס יוסף
י 11,רויף ארי
י 11,שוסטר לוי
י 2,אביב שי
י 2,אהרוני אור
י 2,אנקלביץ רעות
י 2,אפריאט צור
י 2,בכר בר
י 2,בן מאור רוני
י 2,בר אורי
י 2,ברמלי רועי
י 2,גלבוע שהם
י 2,דאי דניאלה
י 2,הופמייסטר יואב
י 2,הצופה תמר
י 2,הרסון ליעם אברהם
י 2,וורקיה ליאור בירהאנ
י 2,ולנסיה ליאור
י 2,זלדין שלי
י 2,חסידי שחר
י 2,יולין יאיר מריו
י 2,כץ שירה
י 2,לביא שגיא
י 2,לובטון אופק
י 2,לוי עידו
י 2,לסרי ג'יי עדי
י 2,מיארה עומר
י 2,מסילתי שחר
י 2,מרינה גל
י 2,סהר עמית
י 2,ססי אורי
י 2,פלג מיקה
י 2,פלג עמית
י 2,פרוביזור אורין
י 2,צור בר
י 2,קליינמן איתי
י 2,קנט רועי
י 2,רחמים אלעד
י 2,שי עדו
י 2,שקד נועה
י 3,אסטחוב אנדריי
י 3,ביטון עמית
י 3,בלו איתי
י 3,בראונשטיין עומר
י 3,גיגנאמאש סלאם
י 3,התרסי יניר
י 3,ויסמן אריאל
י 3,וקנין נעם
י 3,טביבי לירון מאיה
י 3,טלקו ויטלי
י 3,יעקב שירז
י 3,כהן עדן שלום
י 3,כתב ליאור
י 3,לב נדב
י 3,לוזון ליאור
י 3,מיכאלוב יהונתן יוני
י 3,מרי עמית
י 3,סבג נטלי חנה
י 3,פלח דניאל
י 3,צור שיראל
י 3,רחבי שחף
י 3,שיבר עמית
י 3,שלום עידו
י 3,שרעבי רז
י 4,אביב בלייכפלד ניר
י 4,אלקיים נועם
י 4,בוהדנה קורן
י 4,ברגר גל
י 4,גרוס איתי
י 4,גרשון גילי
י 4,דותן שגיא
י 4,דפני רביד
י 4,הולצמן הלל
י 4,הררי יהונתן
י 4,זאן שני
י 4,זילברמן מיטל
י 4,זנו אופיר
י 4,ינוביץ נועם
י 4,יעיש הילה
י 4,יעקב בר יצחק
י 4,לבינגר אלי
י 4,לוי דניאל
י 4,מובילה נינה
י 4,מיכאלי אבישג
י 4,מלניק יניר
י 4,מרוז זהר
י 4,משה רתם
י 4,עופר אלבז אוהד
י 4,עמית תהילה
י 4,פורת אשד
י 4,פררו רותם
י 4,קיסל שון
י 4,קליר עמית
י 5,אברהם מתן
י 5,אופיר עומר
י 5,אשכנזי מאי
י 5,אשכנזי עמרי
י 5,בויקו ניקול
י 5,בוריצקי שירלי
י 5,בן עטר שירז
י 5,גול גלעד
י 5,גלעוט רועי
י 5,גמזו עדי
י 5,דוד לינוי
י 5,וימל שלי
י 5,זוהר אור
י 5,חבוט יואב
י 5,חלפון מאי
י 5,טויל מוריה
י 5,מסילתי שחף
י 5,נחום אלדור
י 5,נפתלי תומר
י 5,סלח אור
י 5,צפלסקי עפר שני
י 5,קובל חן
י 5,קקון שובל
י 5,רצון שגיא
י 5,שיבק שי
י 5,תוראתי דולב
י 6,אוחיון מאי
י 6,אטיאס שחר
י 6,איתן יובל
י 6,אל חי תומר
י 6,אלקיים שחר
י 6,בדני אלירן
י 6,בן דוד אוהד
י 6,בניסטי עומר
י 6,גלזר מאיה
י 6,דלאל גיא
י 6,זומרפלד נועם
י 6,חמד ליאל
י 6,חסן דפני
י 6,לופוביץ מאיה
י 6,ליברמן רון
י 6,נגולה יובל
י 6,נוילנדר נועם
י 6,נחום גל
י 6,סגל מאי
י 6,סלומון גל
י 6,סתיו גיא
י 6,עוז ענבר
י 6,פרדו ליאור
י 6,צברי גיל
י 6,צפריר שי
י 6,קופפר אופק
י 6,קיסר בר
י 6,קרל דניאל
י 6,קרן ספיר
י 6,רבינוביץ מייה
י 6,רז רומי
י 6,רחבי אור
י 6,רפאלי רותם
י 6,שהם זוהר
י 6,שלוש תרין
י 7,אבשלומוב יונתן
י 7,אגם יובל
י 7,אדלמן ארד
י 7,ארגיל רותם-היאלי
י 7,ביטון נועם
י 7,בכר נטע
י 7,בלאנדר נועם
י 7,גורן נועם
י 7,דורי יונתן
י 7,דניאל קרן צבי עדי
י 7,הורוביץ נועם
י 7,הלל מוריאל
י 7,ורנר שוהם
י 7,זק מתי
י 7,חבושה אדר
י 7,כהן גילי
י 7,כהן רוני
י 7,כהן שגיב אבנר
י 7,לוי הדר
י 7,מצליח שחק
י 7,נחייסי דולב
י 7,סנדור דור
י 7,פטל עמית
י 7,פינקל נדב
י 7,פרץ נועם
י 7,צורף בר
י 7,קנטי יובל
י 7,קרפל רוני
י 7,רובינזון עוז
י 7,רוזן הדר
י 7,שובל נעם
י 7,שטיין ינאי
י 7,שנקר קים
י 7,שריג נעה
י 8,אבנור רז
י 8,אברהם נועה
י 8,אנקלביץ רועי
י 8,ארזי ניב
י 8,ביטאו רעות
י 8,בן הרוש אורי
י 8,בן חיים אלה
י 8,בן עטר אופק
י 8,ברמי אושר
י 8,גלר דיה
י 8,דבאסו יצחק
י 8,דינסטג עדי
י 8,חלפון גיא
י 8,חמרה סיון
י 8,חשמונאי גיא
י 8,יופטוב יאנה
י 8,כגן ענבל
י 8,לוי ליהי
י 8,מורד שי
י 8,מזרחי מור
י 8,מזרחי רותם
י 8,מסיקה אביאל
י 8,נעים עדן
י 8,סהר ניצן
י 8,פוגל מעיין
י 8,קרייזמן בר
י 8,קרסו איתי
י 8,שגב מאיה
י 8,שוורץ רועי
י 8,שפטניצקי דוד
י 9,אור יונתן
י 9,איתמרי שיר
י 9,בניאן עידו
י 9,ברנע רוני
י 9,גבורה אייל
י 9,גזלי ליאור
י 9,גילדור הללי
י 9,דנגור רון
י 9,המבורגר לירון
י 9,המי נועה
י 9,הרטמן עדן
י 9,ולדמן עומרי שלמה
י 9,זאן שחף
י 9,חי ניצן
י 9,חמד לינוי
י 9,כהן אפק
י 9,לביץ מיה
י 9,ליבנה שני
י 9,מלינקוב שומריאל
י 9,מן גל
י 9,מצוינים עומר
י 9,ניסן רום
י 9,סולומיאניקוב יסמין
י 9,ענפי דין
י 9,קידר רועי
י 9,רחמני אורן
י 9,שגב נופר
י 9,שיפר יוני
יא 1,אונגר גאיה
יא 1,אזוב עומרי
יא 1,איזנברג מורן
יא 1,בוקר יוגב
יא 1,בלאו שחר
יא 1,בן דוד אלון
יא 1,בסל יהלי
יא 1,גור רום שלמה
יא 1,גליוקמן מיכל
יא 1,גרינברג מיקה
יא 1,הורוביץ קובי
יא 1,זהות יואב
יא 1,זלנפרוינד טל
יא 1,יצחקי תום
יא 1,יקיר רותם
יא 1,כהן רוני
יא 1,כרמל נדב
יא 1,כרמל עידו
יא 1,לוי הדר חיה
יא 1,לוי ורד
יא 1,לוינגר רתם שרה
יא 1,ליאור יותם
יא 1,מנע עמנואל
יא 1,משה שחר
יא 1,ניצן הדר
יא 1,סאיאס גל
יא 1,סבן זוהר
יא 1,סנדל ארז
יא 1,פסח מתן
יא 1,צברי ספיר
יא 1,צגלה אריאל
יא 1,צורני שגב
יא 1,קופלמן אדם
יא 1,קורן נגה
יא 1,קרופניק לירן
יא 1,רוזן תומר
יא 1,רוזנבאום מיקה
יא 1,רפפורט ירדן
יא 1,שטטינר לירון
יא 10,גנאח עדן
יא 10,ולדמן נועם
יא 10,חג'בי אוראל
יא 10,חלב יעקב עומר
יא 10,יחזקאל אלירן
יא 10,עובד פאר
יא 10,פולק אליסה
יא 10,פונטרומולי ליאת
יא 10,רדה טלי
יא 10,שאבי יניב
יא 10,שוקר מאי
יא 10,תמם אלי-אב
יא 11,בורג דיוד הרשל
יא 11,ברינבויים ורוניקה
יא 11,גרינברג משירה
יא 11,דל מונטה אלכסנדרו
יא 11,חורש אליה נועם
יא 11,חרמון דינה יעל
יא 11,לאוין שי
יא 11,ליבוביץ אלון
יא 11,מור ברוס ווילימס
יא 11,ספיציאנו בנדטה
יא 11,פצ'ה תמיר
יא 11,פרנקו אהרון
יא 11,צוקר ניר
יא 11,קהושיד ריינגאץ' קיאנה ביאטרי
יא 11,קלופוט סיימון
יא 11,קליסר ויקטוריה
יא 11,קפלן איילת דפנה
יא 11,רג'מן הראל ציון
יא 11,רוקרט שון ליהו
יא 11,רפאלוב סמואל
יא 11,שטרית ניב
יא 11,שקורי ניב
יא 11,שריקי יונתן
יא 12,אבן שני
יא 12,אטיאס שירה אסתר
יא 12,אמסלם רוני מרים
יא 12,ג'נלו ג'רד
יא 12,גוזמן ג'וליטה
יא 12,גנם רחל
יא 12,די קפאו בנדטה
יא 12,זיו עומר
יא 12,חדד שרון
יא 12,חזיזה דניאל
יא 12,חסן יעל
יא 12,טרצ'ינה אנג'לו
יא 12,כהן גילה
יא 12,לביב אבי
יא 12,ליבן אריה  יונתן
יא 12,מקלינטוק אלינה
יא 12,סוהיט ג'וני
יא 12,סחיפרס דניאל חיים
יא 12,סטלר תמר
יא 12,סעד נועם דוד
יא 12,ספנגולטו שרה
יא 12,פטיגילנו יעל
יא 12,קורניאל דיאנה
יא 12,קורקוס צמח
יא 13,אלעמרי קאי
יא 13,בן יהודה ניב
יא 13,ברנר עדן
יא 13,גמזו עמית
יא 13,גנקין מיכאל
יא 13,דיין יובל
יא 13,דרורי דן
יא 13,כהן רון
יא 13,פרגר אלה
יא 13,רזין קטרין
יא 13,שני דניאלה
יא 13,תייר אילון
יא 2,אבגנים אילה
יא 2,אלדר-כהן ליהוא
יא 2,אנטיפוב דולב
יא 2,בוברוב עפר
יא 2,בייליס גל
יא 2,בלחסן עמית
יא 2,גבלן נטע שלי
יא 2,דעבול ים
יא 2,וולשטיין ניב
יא 2,וסרהולץ ליבי
יא 2,חגואל אופק
יא 2,חמילבסקי סתו
יא 2,חנוכה וקס יותם
יא 2,כהן-אור עילם
יא 2,כהן עדן
יא 2,כהנא יובל
יא 2,כורם אופיר
יא 2,לביא פלג
יא 2,לביא שגיא
יא 2,לואיס גל
יא 2,לרנר ענבר
יא 2,מולכו אסף יוסף
יא 2,סלע תמיר
יא 2,פלג יעל
יא 2,צבי שירי
יא 2,ציפרוט אוהד
יא 2,קרומהולץ עמית
יא 2,קרטס אופק
יא 2,רוזנטל רוני
יא 2,רוזנר יובל
יא 2,רז מאיה
יא 2,רפאלי זיו
יא 2,שמיר מיקה
יא 2,שרייבר עומר
יא 3,אטיה עדן פרדי
יא 3,אינאו אושר
יא 3,אלמיהו אסי
יא 3,בכור עדי
יא 3,גנה טימור
יא 3,דבי דור
יא 3,דוויט בני
יא 3,ווקה וולדליבנוס עלם
יא 3,טאטו לאה
יא 3,טפטה אורטל
יא 3,מדינה מיכאל
יא 3,עיוון עמית
יא 3,פקסיארץ פלורנסיה פז
יא 3,פרל דניאל
יא 3,צימליאנסקי ניקי
יא 3,קידר שיר
יא 3,רוזינק אוראל
יא 3,רוזנטל גל
יא 3,שפינדלר גאיה
יא 4,אפרוני איילי
יא 4,אשמן יותם
יא 4,בבילה שיר
יא 4,בואנו דה מסקיטה עתליה
יא 4,גגצ'נקו אביבה
יא 4,גוטרמן ליאורה
יא 4,גולן אליה
יא 4,גולן עומר
יא 4,גופר ענבר
יא 4,וייס נעמי
יא 4,חי ספיר
יא 4,יצחק טל
יא 4,כספי אביה
יא 4,לביא ליאב
יא 4,לוי אמילי
יא 4,מונץ סטרליץ סול רעיה
יא 4,מור ירדן
יא 4,סגל יואב מורדכי
יא 4,סנדרוב מוריה
יא 4,סעד שיר
יא 4,פלדמן טל
יא 4,קרמלובסקי סיגל
יא 4,רוזנבאום נוי
יא 4,רז אוהד
יא 4,רז דביר
יא 4,שלומן גיא
יא 5,אייל רותם
יא 5,בן דהן אורי אילן
יא 5,בן מרדכי שי
יא 5,בר אליעד
יא 5,גרדין גלי
יא 5,דגה קורל
יא 5,טאקלה הדר
יא 5,יבלונקה זהר
יא 5,יהודה קורל
יא 5,יפתח ענבר
יא 5,כהן לירון
יא 5,כהן תומר
יא 5,לוי חלי
יא 5,מור יחזקאל
יא 5,מלדה נוי
יא 5,נוי כרם
יא 5,פז שחר
יא 5,פלד אלעד
יא 5,פרחי שגיא
יא 5,צוברי עדן
יא 5,קולטקר רונה-לי
יא 5,רכטמן ליאור
יא 5,שאבי אופק
יא 5,שיקאר הדר
יא 5,שליט ליהי
יא 6,אורן ניצן
יא 6,אלביק עדי
יא 6,אפל רום
יא 6,בו דודסון דניאל
יא 6,בוזגלו עומר
יא 6,בן הגיא אורי
יא 6,בן נון נתאי
יא 6,בסה טל
יא 6,בקיש אדוה
יא 6,בראון שני
יא 6,ברג רתם
יא 6,גאולה אדר
יא 6,דגה נופר
יא 6,דיין עומר
יא 6,דניאל ליאור
יא 6,יעקב ירדן
יא 6,יצחקי מאור
יא 6,כהן זיו
יא 6,לוי דורון
יא 6,לוי עילי
יא 6,מזרחי עמית (בן)
יא 6,מזרחי שיראל
יא 6,מירנדה עומר
יא 6,מלאכי מאיה
יא 6,מלכה מאיה
יא 6,נפתלי עדי
יא 6,סולל עידו
יא 6,פריצקר רוני
יא 6,פרנקל עידו
יא 6,צברי שני
יא 6,קוזושנר הדס
יא 6,קופנסקי נטלי
יא 6,רכמן בן
יא 6,שמש דניאל
יא 7,אבישי נועם
יא 7,אהרוני עמי
יא 7,אלון מעיין
יא 7,אמיאל מאיה
יא 7,אמיר ליאם
יא 7,ארז ירין
יא 7,ברמי עומר
יא 7,גבאי עומר
יא 7,גבע נמרוד
יא 7,גרינברג אלון
יא 7,חיים רז
יא 7,יהלומי נועם
יא 7,כידור אביב
יא 7,מזרחי עמית (בת)
יא 7,נידם נטע
יא 7,סולברג ניר
יא 7,סולומון הדר
יא 7,סלוצקר אריאל חי
יא 7,עוואד רם
יא 7,פאוסט אשד איתמר
יא 7,צירלין אלישיב אורי
יא 7,קובו עידן
יא 7,רוזן רתם
יא 7,שבת כהן תומר
יא 7,שחר גאיה
יא 7,שיראי יובל
יא 7,שמשון רן
יא 7,שניידר דניאל
יא 7,שפית שלי
יא 7,תומר נטע
יא 7,תשובה נעה
יא 8,אברהם דולב
יא 8,אפריימוב חן עדן
יא 8,אריק נופר
יא 8,בדיחי נועם
יא 8,ביטון אילון
יא 8,בינדר אריאל
יא 8,בנג'י אריאל
יא 8,בניסטי אלעזר מתן
יא 8,בר און קים
יא 8,ברברשטיין תומר
יא 8,ברנשטיין מיכאל
יא 8,גליזר עדי
יא 8,גרבי דור
יא 8,ויטלה חג'בי אדיר
יא 8,זמיר רוני
יא 8,יוגב עידן
יא 8,כהן ישר ליאב
יא 8,כהן נועם
יא 8,לוי לידן
יא 8,לוצי רוני
יא 8,מיכאיילוב רון
יא 8,נקש לירי
יא 8,עופר אלבז אלעד
יא 8,פרחי משב
יא 8,קוריאט עדן
יא 8,קורקט יהל
יא 8,קריסי טליה
יא 8,רוזנפלד עדן
יא 8,רחמים אושר
יא 8,רחמים עדן
יא 8,שחר הילה
יא 8,שלייפר עידו
יא 8,שלם נתנאל
יא 8,שרביט עדי
יא 8,תורגמן אביב
יא 9,אבני גל
יא 9,אדואר רוני
יא 9,אורלביץ ליעד
יא 9,ברוך אופיר
יא 9,ברנדוין פלג
יא 9,גזית תומר
יא 9,גליניק גיא
יא 9,גמבש עדן
יא 9,דבי עידן
יא 9,דוידוביץ ויקי
יא 9,הלבוס מעוז
יא 9,טביב חיים חי
יא 9,טורג'מן אליה
יא 9,יעקובוביץ נועה
יא 9,לביא עומר
יא 9,לוי אלון
יא 9,נבעה ירין
יא 9,סלע דניאל
יא 9,עובדיה גל
יא 9,עובדיה מאי
יא 9,עזרן מתן
יא 9,ענתבי גל
יא 9,עצמי גאיה
יא 9,פסח בר
יא 9,קוסמין בן
יא 9,קוקו שיר
יא 9,רובין ליאל
יא 9,שבת איתי אברהם
יא 9,שכטר רותם
יא 9,שן כינר
יא 9,שפר עמרי
יא 9,תמיר מאיה
יב 1,אזורה נועה
יב 1,אליהו אור
יב 1,בוסיס אלה
יב 1,בר נר גלי
יב 1,גולדנברג שיר
יב 1,גרבר טל
יב 1,גרוסמן אלון
יב 1,דולב הילה
יב 1,דקל נעה
יב 1,הלפרן נעם
יב 1,זיו ליאל
יב 1,זכרוני דין
יב 1,יוסף יובל
יב 1,לויוס עומר
יב 1,נדלר שחר
יב 1,נוי שקד
יב 1,ניצן אור
יב 1,ניר גל
יב 1,סמוחה עדי
יב 1,סמיונוב דניאל
יב 1,עיון גל
יב 1,פרנקל ברית
יב 1,רז טל
יב 1,רחלין רום
יב 1,שדה דן
יב 1,שמש שחר
יב 1,שניידר סאם
יב 1,שניידר עידו
יב 2,אברהם גיל
יב 2,אלהרר דניאל
יב 2,אמיר ענבל
יב 2,אנקלביץ עידן
יב 2,אפל רון
יב 2,אפשטיין אורי
יב 2,בוקה אור
יב 2,בורדר גבי
יב 2,בן-יוסף אייל
יב 2,ברוטפלד ברק
יב 2,ברנע עדי
יב 2,גלברט גיא
יב 2,גלעוט מור
יב 2,הרטמן איתי
יב 2,וינשטוק מאיה
יב 2,זיסקינד שקד
יב 2,חלוואני רון אסתר
יב 2,יגודה מיכאל
יב 2,יצחקי עמית איל
יב 2,כהן דן
יב 2,לבצ'נקו איליה
יב 2,נדלסטיצ'ר דוד
יב 2,נוילנדר נריה
יב 2,נרקיס בר
יב 2,פוביצר עמית
יב 2,פורת ענבל
יב 2,פרבר אלון
יב 2,פררו חן
יב 2,צרפתי נוה
יב 2,קסוטו רוני
יב 2,רוזן טרופיאנסקי מיכל
יב 2,רוזנבלום ניב
יב 2,רלר עומר
יב 2,שוסטר הילה
יב 2,שמעונוב מתן
יב 2,שקד מעיין
יב 3,אברג'ל לי
יב 3,אוריין יועד
יב 3,אטדגי שיר
יב 3,דוב שלומי
יב 3,טסמה רחל
יב 3,טרוסמן אוהדי
יב 3,ילינוביץ אביב
יב 3,כהן נועם
יב 3,כהן עומרי
יב 3,לוחי לי-אור
יב 3,מלי טל
יב 3,משה גל
יב 3,נגה ניצן
יב 3,סלליך שרה
יב 3,פרי רז
יב 3,צברי אבי
יב 3,קבדה ספיר הובאדל
יב 3,רביבו רביד
יב 3,ריב שירז
יב 4,אברהם דניאל
יב 4,אהרון אמראל
יב 4,אטלס יונתן
יב 4,איליה דניאל
יב 4,אלנקרי אושרי
יב 4,בהרוזי ספיר
יב 4,בלאס שיר-רוז
יב 4,בלומנטל תמר
יב 4,בן חיים כליל אור
יב 4,גריצמן עדן
יב 4,דלל מוריאל
יב 4,הקר מתן
יב 4,וינצר טום
יב 4,וסרהולץ עידו
יב 4,זאבי מעין
יב 4,זילברמן תומר
יב 4,חלף ליאב
יב 4,חקאק איילון
יב 4,לוי עומרי
יב 4,לוין דניאל
יב 4,מטלון עמית
יב 4,מיטלמן ענבל
יב 4,מקונן בת אל
יב 4,משולם אופק
יב 4,משולם תומר
יב 4,נחמני נעה
יב 4,סלמה שחר
יב 4,קוזלוב אליהו
יב 4,רחמים ליעד
יב 4,שושני נועה
יב 4,שיטרית אופק
יב 4,תאומים דקל
יב 5,אליהו ליאור
יב 5,אליעד דניאל עדן
יב 5,בורוכוב דן
יב 5,ביטון רון
יב 5,בכר גל
יב 5,בלין דינה
יב 5,גמרמן אלה
יב 5,דגרבי ליגל
יב 5,דוזדי דור ניב
יב 5,היימן יואב
יב 5,טויל לינוי
יב 5,לוי מיטל
יב 5,לוי נועה
יב 5,מזון אליאור
יב 5,סימן טוב עמית
יב 5,עודי רותם
יב 5,פאר אביאל
יב 5,פדידה יהל
יב 5,צדקי רון
יב 5,צפריר ירין
יב 5,קירש פלג
יב 5,קריידלמן פול
יב 5,רגב לי-אור
יב 5,רפאלי חי
יב 5,שהרבני הדר
יב 6,בלום עדי
יב 6,בן שמן עדי
יב 6,בר-עם חן
יב 6,בר טל נדב
יב 6,גולדפרב רתם
יב 6,גולן אורייה
יב 6,גור סתיו
יב 6,דוד איתי
יב 6,הצופה עמר
יב 6,וירשובסקי אמיר
יב 6,ולקוביץ יובל
יב 6,זגה איתמר
יב 6,חזן עידו
יב 6,ישראלי משי
יב 6,כהן עדי
יב 6,לבינגר מיה
יב 6,מורי אלרון
יב 6,מלאכי איריס
יב 6,מלצר הלל
יב 6,נורמן יולי
יב 6,נחמיאס רוני
יב 6,סולוגוב מאיה
יב 6,סלע עמית
יב 6,עוז עמרי
יב 6,עזיזי נדב
יב 6,עטר תמוז
יב 6,פסט ערן
יב 6,פריד רועי
יב 6,פרידמן נועה
יב 6,צימרמן איתן
יב 6,צפריר שיר
יב 6,רלר רון
יב 6,שוץ יובל
יב 6,שורץ שיר
יב 6,שחר מיקה
יב 6,שטיינברג גל
יב 6,שטרן ניצן
יב 6,תאני זוהר
יב 7,אבנור שירה
יב 7,אילון אביגיל
יב 7,אלפואר בר
יב 7,בית און קרן
יב 7,בן יהודה שחר
יב 7,גולדשטיין יובל
יב 7,גלעד רז
יב 7,גנות עידן
יב 7,דנציגר דן
יב 7,הללי שחף
יב 7,וייס ענבל
יב 7,וינצר בר
יב 7,זכאי ירון
יב 7,זלמנוביץ תבל
יב 7,טל אופיר
יב 7,ילוב גיא
יב 7,יצחקי טל
יב 7,כהן שי
יב 7,לביא אילון
יב 7,לביא קובי
יב 7,מידלר רייף
יב 7,מנע יעל
יב 7,סלחי ליעד
יב 7,קידר מלינוף ליבת
יב 7,קצנסקי בן
יב 7,רובנוב תומר
יב 7,רוטרו בן
יב 7,שחר שירה
יב 7,שלמה אריאל
יב 7,שרייר יובל
יב 8,אייל ניר
יב 8,אייסו גילה
יב 8,בנדל תומר
יב 8,גל יונתן
יב 8,דדון בת ציון
יב 8,דוד אלון
יב 8,דזלדוב יובל
יב 8,ויס איתמר
יב 8,זך רוני
יב 8,זמיר עומר
יב 8,זק מישל
יב 8,חברון מעיין
יב 8,טיקטינסקי ויולה
יב 8,יפה עידו
יב 8,כהן בשיר דוראל
יב 8,כץ יהב
יב 8,ליאני רן
יב 8,לריה אמיתי
יב 8,מזרחי בן
יב 8,מימון תום ניסן
יב 8,נחמיאס גיא
יב 8,ניסן לין
יב 8,סלע אופק
יב 8,סמיונוב ויקטור
יב 8,עבדוש שליו
יב 8,פורת גיל
יב 8,קלי סתיו
יב 8,שמואל גל
יב 8,שקורי מנשה שי
יב 9,אייכורן יעל
יב 9,אסטרולוגו יעל
יב 9,גנם דוד
יב 9,גרסון חנה
יב 9,דובר בן
יב 9,די וירולי ויולה
יב 9,די ויריולי מישל
יב 9,וורנוף ג'וש אריק
יב 9,ורבלבסקי מרינה
יב 9,חביב מישל
יב 9,טול מרוין פרדריק
יב 9,כהן מורגן
יב 9,ליוולי אלסיו
יב 9,למנטיני יוסף
יב 9,משייב סידני
יב 9,ניי אריאל
יב 9,ניקולס אדם
יב 9,סוויצקה קרולינה
יב 9,סונינו נורית
יב 9,סחיפרס אייל מימון
יב 9,סיסון עדן
יב 9,סנד בן
יב 9,סרפין אייזק
יב 9,עמר ליאור
יב 9,פובנצ'לו ג'ניפר
יב 9,פישר גבריאל
יב 9,פרלמן דני
יב 9,פרסר טרה פיי
יב 9,קולניצ'נקו אליס
יב 9,קליר יצחק
יב 9,קרימאלובסקי יואל
יב 9,קרן אורי
יב 9,רדר מיכאל
יב 9,רענן יובל