{
  "details": {
    "$styleposition": "absolute",
    "$styletop": "0px",
    "htmlType": "h3",
    "$stylefloat": "left",
    "htmlText": "%USERTXT%"
  },
  "tests": {
    "htmlType": "table",
    "id": "tests",
    "tableRow": {
      "htmlType": "tr",
      "checkboxes": {
        "htmlType": "th"
      },
      "students": {
        "htmlType": "th",
        "htmlText": "תלמיד"
      },
      "Dates": {
        "htmlType": "th",
        "htmlText": "כיתה"
      },
      "Professions": {
        "htmlType": "th",
        "htmlText": "מקצוע"
      }
    },
    "#Data": {
      "Data": {
        "htmlType": "tr",
        "class": "%%",
        "studentCheckbox": {
          "htmlType": "td",
          "checkBox": {
            "htmlType": "input",
            "type": "checkbox",
            "onclick": "checkBox(this);",
            "name": "selectedTests",
            "value": "%%"
          }
        },
        "student": {
          "htmlType": "td",
          "htmlText": "%%"
        },
        "studentClass": {
          "htmlType": "td",
          "htmlText": "%%"
        },
        "testProfession": {
          "htmlType": "td",
          "htmlText": "%%"
        }
      },
      "@Data": [
        "~b|a",
        "StudentId",
        "#include ProId",
        "$Students:Id:StudentId:Name",
        "$!Students:Id:StudentId:Class",
        "$Professions:Id:ProId:Name",
        "!FROM Tests",
        "!WHERE UserId = %USERID%",
        "!ORDER BY ProId,StudentId ASC"
      ]
    }
  },
  "createNew": {
    "htmlType": "input",
    "type": "button",
    "$styleposition": "absolute",
    "$styletop": "75%",
    "$styleright": "70%",
    "value": "צור מועד ב' חדש",
    "onclick": "go2MB()"
  },
  "removeTests": {
    "$styletop": "80%",
    "$styleright": "70%",
    "$styleposition": "absolute",
    "htmlType": "input",
    "id": "removeTests",
    "type": "button",
    "value": "מחק את המועדים המסומנים",
    "onclick": "removeChosenTests()",
    "disabled": "true"
  }
}